---------------------------
User successfully logged-in
---------------------------
---------------------------2/7/2020 4:25:21 PM
User successfully logged-in
---------------------------
---------------------------2/7/2020 4:25:42 PM
User successfully logged-in
---------------------------
---------------------------2/10/2020 11:16:10 AM---------------------------
New customer created with customer ID :02500-1
---------------------------2/10/2020 11:16:46 AM---------------------------
New Application creation started for customer :AddTBLcustomer85696    (# 02500-1)
---------------------------2/10/2020 11:17:17 AM---------------------------
New Application selected sublicense - Television and Sound Broadcast - for customer AddTBLcustomer85696    (# 02500-1)
---------------------------2/11/2020 7:01:52 AM---------------------------
New Application creation started for customer :AddTBLcustomer85696    (# 02500-1)
---------------------------2/11/2020 7:17:53 AM---------------------------
New Application creation started for customer :AddTBLcustomer85696    (# 02500-1)
---------------------------2/11/2020 7:18:25 AM---------------------------
New Application selected sublicense - Television and Sound Broadcast - for customer AddTBLcustomer85696    (# 02500-1)
---------------------------2/14/2020 7:35:11 AM---------------------------
User successfully logged-in
---------------------------2/14/2020 7:36:08 AM---------------------------
Creating new customer
---------------------------2/14/2020 7:37:37 AM---------------------------
New customer created with customer ID :02501-1
---------------------------2/14/2020 7:39:28 AM---------------------------
New Application creation started for customer :Eric Ray    (# 02501-1)
---------------------------2/14/2020 7:40:11 AM---------------------------
New Application selected sublicense - Television and Sound Broadcast - for customer Eric Ray    (# 02501-1)
---------------------------2/14/2020 11:03:31 AM---------------------------
Creating new customer
---------------------------2/14/2020 11:04:34 AM---------------------------
New customer created with customer ID :02502-1
---------------------------2/14/2020 11:08:56 AM---------------------------
New Application creation started for customer :Ram Reddy    (# 02502-1)
---------------------------2/14/2020 11:09:28 AM---------------------------
New Application selected sublicense - Television and Sound Broadcast - for customer Ram Reddy    (# 02502-1)
---------------------------2/14/2020 12:22:56 PM---------------------------
Creating new customer
---------------------------2/14/2020 12:23:53 PM---------------------------
New customer created with customer ID :02503-1
---------------------------2/14/2020 12:25:20 PM---------------------------
New Application creation started for customer :Ram Reddy    (# 02503-1)
---------------------------2/14/2020 12:28:03 PM---------------------------
New Application creation started for customer :Ram Reddy    (# 02503-1)
---------------------------2/14/2020 12:28:35 PM---------------------------
New Application selected sublicense - Television and Sound Broadcast - for customer Ram Reddy    (# 02503-1)
---------------------------2/14/2020 3:54:25 PM---------------------------
User successfully logged-in
---------------------------2/14/2020 3:57:20 PM---------------------------
User successfully logged-in
---------------------------2/14/2020 3:59:48 PM---------------------------
User successfully logged-in
---------------------------2/14/2020 4:02:30 PM---------------------------
User successfully logged-in
---------------------------2/14/2020 4:05:57 PM---------------------------
User successfully logged-in
---------------------------2/14/2020 4:07:29 PM---------------------------
User successfully logged-in
---------------------------2/14/2020 4:11:42 PM---------------------------
User successfully logged-in
---------------------------2/14/2020 4:12:40 PM---------------------------
User successfully logged-in
---------------------------2/14/2020 4:22:56 PM---------------------------
User successfully logged-in
---------------------------2/14/2020 4:24:22 PM---------------------------
User successfully logged-in
---------------------------2/14/2020 4:30:45 PM---------------------------
User successfully logged-in
---------------------------2/14/2020 4:33:23 PM---------------------------
User successfully logged-in
---------------------------2/14/2020 4:39:20 PM---------------------------
User successfully logged-in
---------------------------2/14/2020 4:40:56 PM---------------------------
User successfully logged-in
---------------------------2/14/2020 4:41:28 PM---------------------------
User successfully logged-in
---------------------------2/14/2020 6:23:30 PM---------------------------
User successfully logged-in
---------------------------2/14/2020 6:24:10 PM---------------------------
Creating new customer
---------------------------2/14/2020 6:24:58 PM---------------------------
New customer created with customer ID :02504-1
---------------------------2/14/2020 6:26:07 PM---------------------------
New Application creation started for customer :Abc Reddy    (# 02504-1)
---------------------------2/14/2020 6:26:37 PM---------------------------
New Application selected sublicense - Television and Sound Broadcast - for customer Abc Reddy    (# 02504-1)
---------------------------2/17/2020 12:05:15 PM---------------------------
User successfully logged-in
---------------------------2/17/2020 10:11:38 PM---------------------------
User successfully logged-in
---------------------------2/17/2020 10:11:59 PM---------------------------
User successfully logged-in
---------------------------2/17/2020 10:13:30 PM---------------------------
Creating new customer
---------------------------2/17/2020 10:14:53 PM---------------------------
New customer created with customer ID :02505-1
---------------------------2/17/2020 10:17:07 PM---------------------------
Creating new customer
---------------------------2/17/2020 10:17:55 PM---------------------------
New customer created with customer ID :02506-1
---------------------------2/17/2020 10:27:59 PM---------------------------
New customer created with customer ID :02507-1
---------------------------2/17/2020 10:29:50 PM---------------------------
New customer created with customer ID :02508-1
---------------------------2/17/2020 10:35:50 PM---------------------------
New customer created with customer ID :02509-1
---------------------------2/19/2020 7:52:35 AM---------------------------
User successfully logged-in
---------------------------2/19/2020 7:55:49 AM---------------------------
Creating new customer
---------------------------2/19/2020 7:56:44 AM---------------------------
New customer created with customer ID :02516-1
---------------------------2/19/2020 7:57:49 AM---------------------------
New Application creation started for customer :Abc Reddy    (# 02516-1)
---------------------------2/19/2020 7:58:19 AM---------------------------
New Application selected sublicense - Television and Sound Broadcast - for customer Abc Reddy    (# 02516-1)
---------------------------2/19/2020 11:02:42 AM---------------------------
User successfully logged-in
---------------------------2/25/2020 6:32:45 AM---------------------------
User successfully logged-in
---------------------------2/25/2020 7:15:53 AM---------------------------
User successfully logged-in
---------------------------2/25/2020 7:23:47 AM---------------------------
User successfully logged-in
---------------------------2/25/2020 7:28:44 AM---------------------------
User successfully logged-in
---------------------------2/25/2020 7:29:44 AM---------------------------
User successfully logged-in
---------------------------2/25/2020 7:32:38 AM---------------------------
User successfully logged-in
---------------------------2/25/2020 9:43:50 AM---------------------------
User successfully logged-in
---------------------------2/25/2020 9:44:28 AM---------------------------
Creating new customer
---------------------------2/25/2020 9:44:55 AM---------------------------
New customer created with customer ID :02517-1
---------------------------2/25/2020 9:48:54 AM---------------------------
New Application creation started for customer :Abc Reddy    (# 02517-1)
---------------------------2/25/2020 9:49:25 AM---------------------------
New Application selected sublicense - Television and Sound Broadcast - for customer Abc Reddy    (# 02517-1)
---------------------------2/25/2020 10:34:32 AM---------------------------
User successfully logged-in
---------------------------2/25/2020 10:40:55 AM---------------------------
User successfully logged-in
---------------------------2/25/2020 10:42:44 AM---------------------------
User successfully logged-in
---------------------------2/25/2020 11:29:49 AM---------------------------
User successfully logged-in
---------------------------2/25/2020 11:31:44 AM---------------------------
New customer created with customer ID :02518-1
---------------------------2/25/2020 11:44:31 AM---------------------------
New Application creation started for customer :AddTBLcustomer85696    (# 02518-1)
---------------------------2/25/2020 11:45:04 AM---------------------------
New Application selected sublicense - Television and Sound Broadcast - for customer AddTBLcustomer85696    (# 02518-1)
---------------------------2/25/2020 2:40:55 PM---------------------------
User successfully logged-in
---------------------------2/25/2020 2:41:32 PM---------------------------
Creating new customer
---------------------------2/25/2020 2:42:25 PM---------------------------
New customer created with customer ID :02519-1
---------------------------2/25/2020 2:43:35 PM---------------------------
New Application creation started for customer :Abc Reddy    (# 02519-1)
---------------------------2/25/2020 2:44:06 PM---------------------------
New Application selected sublicense - Television and Sound Broadcast - for customer Abc Reddy    (# 02519-1)
---------------------------2/25/2020 3:42:13 PM---------------------------
User successfully logged-in
---------------------------2/25/2020 3:50:43 PM---------------------------
User successfully logged-in
---------------------------2/25/2020 4:12:01 PM---------------------------
User successfully logged-in
---------------------------2/25/2020 4:13:03 PM---------------------------
New customer created with customer ID :02520-1
---------------------------2/25/2020 4:13:35 PM---------------------------
New Application creation started for customer :AddTBLcustomer85696    (# 02520-1)
---------------------------2/25/2020 4:14:06 PM---------------------------
New Application selected sublicense - Television and Sound Broadcast - for customer AddTBLcustomer85696    (# 02520-1)
---------------------------2/26/2020 7:14:14 AM---------------------------
User successfully logged-in
---------------------------2/26/2020 7:15:55 AM---------------------------
New customer created with customer ID :02521-1
---------------------------2/26/2020 7:21:12 AM---------------------------
User successfully logged-in
---------------------------2/26/2020 7:22:10 AM---------------------------
New customer created with customer ID :02522-1
---------------------------2/26/2020 7:22:42 AM---------------------------
New Application creation started for customer :AddTBLcustomer85696    (# 02522-1)
---------------------------2/26/2020 7:23:12 AM---------------------------
New Application selected sublicense - Television and Sound Broadcast - for customer AddTBLcustomer85696    (# 02522-1)
---------------------------2/26/2020 7:50:30 AM---------------------------
New customer created with customer ID :02523-1
---------------------------2/26/2020 7:51:14 AM---------------------------
New Application creation started for customer :AddTBLcustomer85696    (# 02523-1)
---------------------------2/26/2020 7:51:45 AM---------------------------
New Application selected sublicense - Television and Sound Broadcast - for customer AddTBLcustomer85696    (# 02523-1)
---------------------------2/26/2020 11:15:05 AM---------------------------
User successfully logged-in
---------------------------2/26/2020 11:17:19 AM---------------------------
New Application creation started for customer :Addcustgvt1234    (# 02524-1)
---------------------------2/26/2020 11:17:49 AM---------------------------
New Application selected sublicense - Television and Sound Broadcast - for customer Addcustgvt1234    (# 02524-1)
---------------------------2/26/2020 7:12:06 PM---------------------------
User successfully logged-in
---------------------------2/26/2020 7:13:59 PM---------------------------
New Application creation started for customer :Addcustgvt1234    (# 02525-1)
---------------------------2/26/2020 7:14:29 PM---------------------------
New Application selected sublicense - Land / Mobile - for customer Addcustgvt1234    (# 02525-1)
---------------------------2/26/2020 11:31:40 PM---------------------------
User successfully logged-in
---------------------------2/26/2020 11:37:26 PM---------------------------
New Application creation started for customer :AddcustrNgvtcmp354    (# 02526-1)
---------------------------2/26/2020 11:37:56 PM---------------------------
New Application selected sublicense - Land / Mobile - for customer AddcustrNgvtcmp354    (# 02526-1)
---------------------------2/27/2020 11:24:39 AM---------------------------
User successfully logged-in
---------------------------2/27/2020 2:59:10 PM---------------------------
New Application creation started for customer :AddcustrNgvtcmp354    (# 02528-1)
---------------------------2/27/2020 2:59:42 PM---------------------------
New Application selected sublicense - Radio Transmitter, Security - for customer AddcustrNgvtcmp354    (# 02528-1)
---------------------------2/27/2020 9:37:24 PM---------------------------
User successfully logged-in
---------------------------2/27/2020 9:43:13 PM---------------------------
Creating new customer
---------------------------2/27/2020 9:43:44 PM---------------------------
New customer created with customer ID :02529-1
---------------------------2/27/2020 9:44:52 PM---------------------------
New Application creation started for customer :Abc Reddy    (# 02529-1)
---------------------------2/27/2020 9:45:21 PM---------------------------
New Application selected sublicense - Radio Transmitter, Security - for customer Abc Reddy    (# 02529-1)
---------------------------2/27/2020 10:12:09 PM---------------------------
User successfully logged-in
---------------------------2/27/2020 10:13:08 PM---------------------------
Creating new customer
---------------------------2/27/2020 10:13:53 PM---------------------------
New customer created with customer ID :02530-1
---------------------------2/27/2020 10:15:08 PM---------------------------
New Application creation started for customer :Abc Reddy    (# 02530-1)
---------------------------2/27/2020 10:15:40 PM---------------------------
New Application selected sublicense - Television and Sound Broadcast - for customer Abc Reddy    (# 02530-1)
---------------------------2/28/2020 10:06:39 AM---------------------------
New customer created with customer ID :02531-1
---------------------------2/28/2020 10:07:13 AM---------------------------
New Application creation started for customer :AddTBLcustomer85696    (# 02531-1)
---------------------------2/28/2020 10:07:44 AM---------------------------
New Application selected sublicense - Television and Sound Broadcast - for customer AddTBLcustomer85696    (# 02531-1)
---------------------------2/28/2020 10:42:48 AM---------------------------
New customer created with customer ID :02532-1
---------------------------2/28/2020 10:43:17 AM---------------------------
New Application creation started for customer :AddTBLcustomer85696    (# 02532-1)
---------------------------2/28/2020 10:43:46 AM---------------------------
New Application selected sublicense - Television and Sound Broadcast - for customer AddTBLcustomer85696    (# 02532-1)
---------------------------2/28/2020 12:14:23 PM---------------------------
New customer created with customer ID :02533-1
---------------------------2/28/2020 12:15:02 PM---------------------------
New Application creation started for customer :AddID_Cust85696    (# 02533-1)
---------------------------2/28/2020 12:15:32 PM---------------------------
New Application selected sublicense - Television and Sound Broadcast - for customer AddID_Cust85696    (# 02533-1)
---------------------------2/28/2020 1:00:06 PM---------------------------
New customer created with customer ID :02534-1
---------------------------2/28/2020 1:00:35 PM---------------------------
New Application creation started for customer :AddID_Cust85697    (# 02534-1)
---------------------------2/28/2020 1:01:04 PM---------------------------
New Application selected sublicense - Television and Sound Broadcast - for customer AddID_Cust85697    (# 02534-1)
---------------------------2/28/2020 2:57:55 PM---------------------------
New customer created with customer ID :02535-1
---------------------------2/28/2020 2:58:25 PM---------------------------
New Application creation started for customer :Aban_Cust85697    (# 02535-1)
---------------------------2/28/2020 2:58:54 PM---------------------------
New Application selected sublicense - Television and Sound Broadcast - for customer Aban_Cust85697    (# 02535-1)
---------------------------2/28/2020 3:43:15 PM---------------------------
New customer created with customer ID :02536-1
---------------------------2/28/2020 3:43:45 PM---------------------------
New Application creation started for customer :A_Cust85697    (# 02536-1)
---------------------------2/28/2020 3:44:15 PM---------------------------
New Application selected sublicense - Television and Sound Broadcast - for customer A_Cust85697    (# 02536-1)
---------------------------2/28/2020 4:17:39 PM---------------------------
New customer created with customer ID :02537-1
---------------------------2/28/2020 4:18:13 PM---------------------------
New Application creation started for customer :1A_Cust85697    (# 02537-1)
---------------------------2/28/2020 4:18:43 PM---------------------------
New Application selected sublicense - Television and Sound Broadcast - for customer 1A_Cust85697    (# 02537-1)
---------------------------2/28/2020 4:53:07 PM---------------------------
New customer created with customer ID :02538-1
---------------------------2/28/2020 4:53:37 PM---------------------------
New Application creation started for customer :1A_Cust85697    (# 02538-1)
---------------------------2/28/2020 4:54:06 PM---------------------------
New Application selected sublicense - Television and Sound Broadcast - for customer 1A_Cust85697    (# 02538-1)
---------------------------2/28/2020 5:50:32 PM---------------------------
New customer created with customer ID :02539-1
---------------------------2/28/2020 5:51:01 PM---------------------------
New Application creation started for customer :1A_Cust85697    (# 02539-1)
---------------------------2/28/2020 5:51:31 PM---------------------------
New Application selected sublicense - Television and Sound Broadcast - for customer 1A_Cust85697    (# 02539-1)
---------------------------3/2/2020 11:45:10 AM---------------------------
New customer created with customer ID :02540-1
---------------------------3/2/2020 11:45:40 AM---------------------------
New Application creation started for customer :1A_Cust85698    (# 02540-1)
---------------------------3/2/2020 11:46:09 AM---------------------------
New Application selected sublicense - Television and Sound Broadcast - for customer 1A_Cust85698    (# 02540-1)
---------------------------3/2/2020 12:24:45 PM---------------------------
New customer created with customer ID :02541-1
---------------------------3/2/2020 12:25:15 PM---------------------------
New Application creation started for customer :1A_Cust8916    (# 02541-1)
---------------------------3/2/2020 12:25:44 PM---------------------------
New Application selected sublicense - Television and Sound Broadcast - for customer 1A_Cust8916    (# 02541-1)
---------------------------3/2/2020 1:09:08 PM---------------------------
New customer created with customer ID :02543-1
---------------------------3/2/2020 1:09:38 PM---------------------------
New Application creation started for customer :1A_Cust8917    (# 02543-1)
---------------------------3/2/2020 1:10:07 PM---------------------------
New Application selected sublicense - Television and Sound Broadcast - for customer 1A_Cust8917    (# 02543-1)
---------------------------3/2/2020 4:31:07 PM---------------------------
Creating new customer
---------------------------3/2/2020 4:31:34 PM---------------------------
New customer created with customer ID :02544-1
---------------------------3/2/2020 4:33:03 PM---------------------------
New Application creation started for customer :Abc Reddy    (# 02544-1)
---------------------------3/2/2020 4:33:36 PM---------------------------
New Application selected sublicense - Television and Sound Broadcast - for customer Abc Reddy    (# 02544-1)
---------------------------3/2/2020 5:12:28 PM---------------------------
New customer created with customer ID :02545-1
---------------------------3/2/2020 5:30:41 PM---------------------------
New customer created with customer ID :02546-1
---------------------------3/2/2020 5:31:16 PM---------------------------
New Application creation started for customer :1A_Cust8919    (# 02546-1)
---------------------------3/2/2020 5:31:46 PM---------------------------
New Application selected sublicense - Television and Sound Broadcast - for customer 1A_Cust8919    (# 02546-1)
---------------------------3/2/2020 5:37:01 PM---------------------------
New Application creation started for customer :1A_Cust8919    (# 02546-1)
---------------------------3/2/2020 5:40:15 PM---------------------------
New customer created with customer ID :02547-1
---------------------------3/2/2020 5:41:50 PM---------------------------
New Application creation started for customer :1A_Cust8920    (# 02547-1)
---------------------------3/2/2020 5:42:21 PM---------------------------
New Application selected sublicense - Television and Sound Broadcast - for customer 1A_Cust8920    (# 02547-1)
---------------------------3/2/2020 5:46:21 PM---------------------------
New customer created with customer ID :02548-1
---------------------------3/2/2020 5:46:52 PM---------------------------
New Application creation started for customer :1A_Cust8921    (# 02548-1)
---------------------------3/2/2020 5:47:23 PM---------------------------
New Application selected sublicense - Television and Sound Broadcast - for customer 1A_Cust8921    (# 02548-1)
---------------------------3/2/2020 5:56:11 PM---------------------------
New Application creation started for customer :1A_Cust8921    (# 02548-1)
---------------------------3/2/2020 6:01:32 PM---------------------------
New customer created with customer ID :02549-1
---------------------------3/2/2020 6:02:06 PM---------------------------
New Application creation started for customer :1A_Cust8922    (# 02549-1)
---------------------------3/2/2020 6:02:36 PM---------------------------
New Application selected sublicense - Television and Sound Broadcast - for customer 1A_Cust8922    (# 02549-1)
---------------------------3/2/2020 6:07:22 PM---------------------------
New customer created with customer ID :02550-1
---------------------------3/2/2020 6:07:53 PM---------------------------
New Application creation started for customer :1A_Cust8923    (# 02550-1)
---------------------------3/2/2020 6:08:23 PM---------------------------
New Application selected sublicense - Television and Sound Broadcast - for customer 1A_Cust8923    (# 02550-1)
---------------------------3/2/2020 6:12:47 PM---------------------------
New customer created with customer ID :02551-1
---------------------------3/2/2020 6:13:18 PM---------------------------
New Application creation started for customer :1A_Cust8924    (# 02551-1)
---------------------------3/2/2020 6:13:48 PM---------------------------
New Application selected sublicense - Television and Sound Broadcast - for customer 1A_Cust8924    (# 02551-1)
---------------------------3/2/2020 6:17:49 PM---------------------------
New customer created with customer ID :02552-1
---------------------------3/2/2020 6:18:19 PM---------------------------
New Application creation started for customer :1A_Cust8925    (# 02552-1)
---------------------------3/2/2020 6:18:49 PM---------------------------
New Application selected sublicense - Television and Sound Broadcast - for customer 1A_Cust8925    (# 02552-1)
---------------------------3/2/2020 6:23:06 PM---------------------------
New customer created with customer ID :02553-1
---------------------------3/2/2020 6:23:36 PM---------------------------
New Application creation started for customer :1A_Cust8926    (# 02553-1)
---------------------------3/2/2020 6:24:06 PM---------------------------
New Application selected sublicense - Television and Sound Broadcast - for customer 1A_Cust8926    (# 02553-1)
---------------------------3/2/2020 6:44:17 PM---------------------------
New customer created with customer ID :02554-1
---------------------------3/2/2020 6:44:52 PM---------------------------
New Application creation started for customer :1A_Cust8927    (# 02554-1)
---------------------------3/2/2020 6:45:22 PM---------------------------
New Application selected sublicense - Television and Sound Broadcast - for customer 1A_Cust8927    (# 02554-1)
---------------------------3/2/2020 7:49:24 PM---------------------------
0
---------------------------3/2/2020 7:49:24 PM---------------------------
?@#$%^&*()?><:"|}{+    (# Company Field Validations)
---------------------------3/2/2020 7:49:24 PM---------------------------
1A_Cust8926    (# 02553-1)
---------------------------3/2/2020 7:49:27 PM---------------------------
1
---------------------------3/2/2020 7:49:27 PM---------------------------
"Central 96.3 FM Jamaica", "Adoration Entertainment"    (# 01823-1)
---------------------------3/2/2020 7:49:27 PM---------------------------
1A_Cust8926    (# 02553-1)
---------------------------3/2/2020 7:49:31 PM---------------------------
2
---------------------------3/2/2020 7:49:31 PM---------------------------
"VCGP-EMCC JOINT VENTURE", "VCGP-EMCC JV"    (# 01889-1)
---------------------------3/2/2020 7:49:31 PM---------------------------
1A_Cust8926    (# 02553-1)
---------------------------3/2/2020 7:49:35 PM---------------------------
3
---------------------------3/2/2020 7:49:35 PM---------------------------
"VCGP-EMCC JOINT VENTURE", "VCGP-EMCC JV"    (# 01889-2)
---------------------------3/2/2020 7:49:35 PM---------------------------
1A_Cust8926    (# 02553-1)
---------------------------3/2/2020 7:49:39 PM---------------------------
4
---------------------------3/2/2020 7:49:39 PM---------------------------
'Breds' Treasure Beach Foundation    (# 00290-1)
---------------------------3/2/2020 7:49:39 PM---------------------------
1A_Cust8926    (# 02553-1)
---------------------------3/2/2020 7:49:42 PM---------------------------
5
---------------------------3/2/2020 7:49:43 PM---------------------------
1A_Cust85697    (# 02537-1)
---------------------------3/2/2020 7:49:43 PM---------------------------
1A_Cust8926    (# 02553-1)
---------------------------3/2/2020 7:49:46 PM---------------------------
6
---------------------------3/2/2020 7:49:46 PM---------------------------
1A_Cust85697    (# 02538-1)
---------------------------3/2/2020 7:49:46 PM---------------------------
1A_Cust8926    (# 02553-1)
---------------------------3/2/2020 7:49:50 PM---------------------------
7
---------------------------3/2/2020 7:49:50 PM---------------------------
1A_Cust85697    (# 02539-1)
---------------------------3/2/2020 7:49:50 PM---------------------------
1A_Cust8926    (# 02553-1)
---------------------------3/2/2020 7:49:54 PM---------------------------
8
---------------------------3/2/2020 7:49:54 PM---------------------------
1A_Cust85698    (# 02540-1)
---------------------------3/2/2020 7:49:54 PM---------------------------
1A_Cust8926    (# 02553-1)
---------------------------3/2/2020 7:49:58 PM---------------------------
9
---------------------------3/2/2020 7:49:58 PM---------------------------
1A_Cust8916    (# 02541-1)
---------------------------3/2/2020 7:49:58 PM---------------------------
1A_Cust8926    (# 02553-1)
---------------------------3/2/2020 7:50:01 PM---------------------------
10
---------------------------3/2/2020 7:50:01 PM---------------------------
1A_Cust8917    (# 02543-1)
---------------------------3/2/2020 7:50:02 PM---------------------------
1A_Cust8926    (# 02553-1)
---------------------------3/2/2020 7:50:05 PM---------------------------
11
---------------------------3/2/2020 7:50:05 PM---------------------------
1A_Cust8918    (# 02545-1)
---------------------------3/2/2020 7:50:05 PM---------------------------
1A_Cust8926    (# 02553-1)
---------------------------3/2/2020 7:50:09 PM---------------------------
12
---------------------------3/2/2020 7:50:09 PM---------------------------
1A_Cust8919    (# 02546-1)
---------------------------3/2/2020 7:50:09 PM---------------------------
1A_Cust8926    (# 02553-1)
---------------------------3/2/2020 7:50:13 PM---------------------------
13
---------------------------3/2/2020 7:50:13 PM---------------------------
1A_Cust8920    (# 02547-1)
---------------------------3/2/2020 7:50:13 PM---------------------------
1A_Cust8926    (# 02553-1)
---------------------------3/2/2020 7:50:17 PM---------------------------
14
---------------------------3/2/2020 7:50:17 PM---------------------------
1A_Cust8921    (# 02548-1)
---------------------------3/2/2020 7:50:17 PM---------------------------
1A_Cust8926    (# 02553-1)
---------------------------3/2/2020 7:50:21 PM---------------------------
15
---------------------------3/2/2020 7:50:21 PM---------------------------
1A_Cust8922    (# 02549-1)
---------------------------3/2/2020 7:50:21 PM---------------------------
1A_Cust8926    (# 02553-1)
---------------------------3/2/2020 7:50:25 PM---------------------------
16
---------------------------3/2/2020 7:50:25 PM---------------------------
1A_Cust8923    (# 02550-1)
---------------------------3/2/2020 7:50:25 PM---------------------------
1A_Cust8926    (# 02553-1)
---------------------------3/2/2020 7:50:29 PM---------------------------
17
---------------------------3/2/2020 7:50:29 PM---------------------------
1A_Cust8924    (# 02551-1)
---------------------------3/2/2020 7:50:29 PM---------------------------
1A_Cust8926    (# 02553-1)
---------------------------3/2/2020 7:50:32 PM---------------------------
18
---------------------------3/2/2020 7:50:33 PM---------------------------
1A_Cust8925    (# 02552-1)
---------------------------3/2/2020 7:50:33 PM---------------------------
1A_Cust8926    (# 02553-1)
---------------------------3/2/2020 7:50:36 PM---------------------------
19
---------------------------3/2/2020 7:50:36 PM---------------------------
1A_Cust8926    (# 02553-1)
---------------------------3/2/2020 7:50:36 PM---------------------------
1A_Cust8926    (# 02553-1)
---------------------------3/2/2020 7:50:40 PM---------------------------
20
---------------------------3/2/2020 7:50:40 PM---------------------------
1A_Cust8927    (# 02554-1)
---------------------------3/2/2020 7:50:40 PM---------------------------
1A_Cust8926    (# 02553-1)
---------------------------3/2/2020 7:50:44 PM---------------------------
21
---------------------------3/2/2020 7:50:44 PM---------------------------
2858-1965 QUEBEC INC.    (# 01360-1)
---------------------------3/2/2020 7:50:44 PM---------------------------
1A_Cust8926    (# 02553-1)
---------------------------3/2/2020 7:50:48 PM---------------------------
22
---------------------------3/2/2020 7:51:10 PM---------------------------
1A_Cust8926    (# 02553-1)
---------------------------3/2/2020 7:58:01 PM---------------------------
0
---------------------------3/2/2020 7:58:01 PM---------------------------
?@#$%^&*()?><:"|}{+    (# Company Field Validations)
---------------------------3/2/2020 7:58:01 PM---------------------------
1A_Cust85697    (# 02537-1)
---------------------------3/2/2020 7:58:04 PM---------------------------
1
---------------------------3/2/2020 7:58:04 PM---------------------------
"Central 96.3 FM Jamaica", "Adoration Entertainment"    (# 01823-1)
---------------------------3/2/2020 7:58:04 PM---------------------------
1A_Cust85697    (# 02537-1)
---------------------------3/2/2020 7:58:08 PM---------------------------
2
---------------------------3/2/2020 7:58:08 PM---------------------------
"VCGP-EMCC JOINT VENTURE", "VCGP-EMCC JV"    (# 01889-1)
---------------------------3/2/2020 7:58:08 PM---------------------------
1A_Cust85697    (# 02537-1)
---------------------------3/2/2020 7:58:12 PM---------------------------
3
---------------------------3/2/2020 7:58:12 PM---------------------------
"VCGP-EMCC JOINT VENTURE", "VCGP-EMCC JV"    (# 01889-2)
---------------------------3/2/2020 7:58:12 PM---------------------------
1A_Cust85697    (# 02537-1)
---------------------------3/2/2020 7:58:16 PM---------------------------
4
---------------------------3/2/2020 7:58:16 PM---------------------------
'Breds' Treasure Beach Foundation    (# 00290-1)
---------------------------3/2/2020 7:58:16 PM---------------------------
1A_Cust85697    (# 02537-1)
---------------------------3/2/2020 7:58:19 PM---------------------------
5
---------------------------3/2/2020 7:58:20 PM---------------------------
1A_Cust85697    (# 02537-1)
---------------------------3/2/2020 7:58:20 PM---------------------------
1A_Cust85697    (# 02537-1)
---------------------------3/2/2020 8:00:48 PM---------------------------
0
---------------------------3/2/2020 8:00:49 PM---------------------------
?@#$%^&*()?><:"|}{+    (# Company Field Validations)
---------------------------3/2/2020 8:00:49 PM---------------------------
1A_Cust8923    (# 02550-1)
---------------------------3/2/2020 8:00:51 PM---------------------------
1
---------------------------3/2/2020 8:00:52 PM---------------------------
"Central 96.3 FM Jamaica", "Adoration Entertainment"    (# 01823-1)
---------------------------3/2/2020 8:00:52 PM---------------------------
1A_Cust8923    (# 02550-1)
---------------------------3/2/2020 8:00:54 PM---------------------------
2
---------------------------3/2/2020 8:00:55 PM---------------------------
"VCGP-EMCC JOINT VENTURE", "VCGP-EMCC JV"    (# 01889-1)
---------------------------3/2/2020 8:00:55 PM---------------------------
1A_Cust8923    (# 02550-1)
---------------------------3/2/2020 8:00:57 PM---------------------------
3
---------------------------3/2/2020 8:00:58 PM---------------------------
"VCGP-EMCC JOINT VENTURE", "VCGP-EMCC JV"    (# 01889-2)
---------------------------3/2/2020 8:00:58 PM---------------------------
1A_Cust8923    (# 02550-1)
---------------------------3/2/2020 8:01:01 PM---------------------------
4
---------------------------3/2/2020 8:01:02 PM---------------------------
'Breds' Treasure Beach Foundation    (# 00290-1)
---------------------------3/2/2020 8:01:02 PM---------------------------
1A_Cust8923    (# 02550-1)
---------------------------3/2/2020 8:01:04 PM---------------------------
5
---------------------------3/2/2020 8:01:05 PM---------------------------
1A_Cust85697    (# 02537-1)
---------------------------3/2/2020 8:01:05 PM---------------------------
1A_Cust8923    (# 02550-1)
---------------------------3/2/2020 8:01:15 PM---------------------------
6
---------------------------3/2/2020 8:01:15 PM---------------------------
1A_Cust85697    (# 02538-1)
---------------------------3/2/2020 8:01:15 PM---------------------------
1A_Cust8923    (# 02550-1)
---------------------------3/2/2020 8:01:19 PM---------------------------
7
---------------------------3/2/2020 8:01:19 PM---------------------------
1A_Cust85697    (# 02539-1)
---------------------------3/2/2020 8:01:19 PM---------------------------
1A_Cust8923    (# 02550-1)
---------------------------3/2/2020 8:01:24 PM---------------------------
8
---------------------------3/2/2020 8:01:24 PM---------------------------
1A_Cust85698    (# 02540-1)
---------------------------3/2/2020 8:01:24 PM---------------------------
1A_Cust8923    (# 02550-1)
---------------------------3/2/2020 8:01:28 PM---------------------------
9
---------------------------3/2/2020 8:01:29 PM---------------------------
1A_Cust8916    (# 02541-1)
---------------------------3/2/2020 8:01:29 PM---------------------------
1A_Cust8923    (# 02550-1)
---------------------------3/2/2020 8:01:33 PM---------------------------
10
---------------------------3/2/2020 8:01:33 PM---------------------------
1A_Cust8917    (# 02543-1)
---------------------------3/2/2020 8:01:33 PM---------------------------
1A_Cust8923    (# 02550-1)
---------------------------3/2/2020 8:01:38 PM---------------------------
11
---------------------------3/2/2020 8:01:38 PM---------------------------
1A_Cust8918    (# 02545-1)
---------------------------3/2/2020 8:01:38 PM---------------------------
1A_Cust8923    (# 02550-1)
---------------------------3/2/2020 8:01:42 PM---------------------------
12
---------------------------3/2/2020 8:01:42 PM---------------------------
1A_Cust8919    (# 02546-1)
---------------------------3/2/2020 8:01:42 PM---------------------------
1A_Cust8923    (# 02550-1)
---------------------------3/2/2020 8:01:47 PM---------------------------
13
---------------------------3/2/2020 8:01:47 PM---------------------------
1A_Cust8920    (# 02547-1)
---------------------------3/2/2020 8:01:47 PM---------------------------
1A_Cust8923    (# 02550-1)
---------------------------3/2/2020 8:01:51 PM---------------------------
14
---------------------------3/2/2020 8:01:52 PM---------------------------
1A_Cust8921    (# 02548-1)
---------------------------3/2/2020 8:01:52 PM---------------------------
1A_Cust8923    (# 02550-1)
---------------------------3/2/2020 8:01:56 PM---------------------------
15
---------------------------3/2/2020 8:01:56 PM---------------------------
1A_Cust8922    (# 02549-1)
---------------------------3/2/2020 8:01:56 PM---------------------------
1A_Cust8923    (# 02550-1)
---------------------------3/2/2020 8:02:01 PM---------------------------
16
---------------------------3/2/2020 8:02:01 PM---------------------------
1A_Cust8923    (# 02550-1)
---------------------------3/2/2020 8:02:01 PM---------------------------
1A_Cust8923    (# 02550-1)
---------------------------3/2/2020 8:02:05 PM---------------------------
17
---------------------------3/2/2020 8:02:05 PM---------------------------
1A_Cust8924    (# 02551-1)
---------------------------3/2/2020 8:02:06 PM---------------------------
1A_Cust8923    (# 02550-1)
---------------------------3/2/2020 8:02:10 PM---------------------------
18
---------------------------3/2/2020 8:02:10 PM---------------------------
1A_Cust8925    (# 02552-1)
---------------------------3/2/2020 8:02:10 PM---------------------------
1A_Cust8923    (# 02550-1)
---------------------------3/2/2020 8:02:15 PM---------------------------
19
---------------------------3/2/2020 8:02:15 PM---------------------------
1A_Cust8926    (# 02553-1)
---------------------------3/2/2020 8:02:15 PM---------------------------
1A_Cust8923    (# 02550-1)
---------------------------3/2/2020 9:14:04 PM---------------------------
New customer created with customer ID :02555-1
---------------------------3/2/2020 9:14:44 PM---------------------------
New Application creation started for customer :11A_Cust8927    (# 02555-1)
---------------------------3/2/2020 9:15:15 PM---------------------------
New Application selected sublicense - Television and Sound Broadcast - for customer 11A_Cust8927    (# 02555-1)
---------------------------3/2/2020 9:23:54 PM---------------------------
New customer created with customer ID :02556-1
---------------------------3/2/2020 9:24:35 PM---------------------------
New Application creation started for customer :11A_Cust8928    (# 02556-1)
---------------------------3/2/2020 9:25:06 PM---------------------------
New Application selected sublicense - Television and Sound Broadcast - for customer 11A_Cust8928    (# 02556-1)
---------------------------3/2/2020 10:11:07 PM---------------------------
New customer created with customer ID :02557-1
---------------------------3/2/2020 10:12:00 PM---------------------------
New Application creation started for customer :11A_Cust8929    (# 02557-1)
---------------------------3/2/2020 10:12:33 PM---------------------------
New Application selected sublicense - Television and Sound Broadcast - for customer 11A_Cust8929    (# 02557-1)
---------------------------3/2/2020 10:57:01 PM---------------------------
New customer created with customer ID :02558-1
---------------------------3/2/2020 10:57:53 PM---------------------------
New Application creation started for customer :11A_Cust8931    (# 02558-1)
---------------------------3/2/2020 10:58:25 PM---------------------------
New Application selected sublicense - Television and Sound Broadcast - for customer 11A_Cust8931    (# 02558-1)
---------------------------3/2/2020 11:50:17 PM---------------------------
New customer created with customer ID :02559-1
---------------------------3/2/2020 11:50:48 PM---------------------------
New Application creation started for customer :11A_Cust8932    (# 02559-1)
---------------------------3/2/2020 11:51:18 PM---------------------------
New Application selected sublicense - Television and Sound Broadcast - for customer 11A_Cust8932    (# 02559-1)
---------------------------3/3/2020 10:11:39 AM---------------------------
New customer created with customer ID :02560-1
---------------------------3/3/2020 10:12:13 AM---------------------------
New Application creation started for customer :11A_Cust8933    (# 02560-1)
---------------------------3/3/2020 10:12:44 AM---------------------------
New Application selected sublicense - Television and Sound Broadcast - for customer 11A_Cust8933    (# 02560-1)
---------------------------3/3/2020 12:23:58 PM---------------------------
New customer created with customer ID :02561-1
---------------------------3/3/2020 12:24:28 PM---------------------------
New Application creation started for customer :11A_Cust8934    (# 02561-1)
---------------------------3/3/2020 12:24:57 PM---------------------------
New Application selected sublicense - Television and Sound Broadcast - for customer 11A_Cust8934    (# 02561-1)
---------------------------3/3/2020 1:29:34 PM---------------------------
New customer created with customer ID :02562-1
---------------------------3/3/2020 1:30:04 PM---------------------------
New Application creation started for customer :11A_Cust8935    (# 02562-1)
---------------------------3/3/2020 1:30:34 PM---------------------------
New Application selected sublicense - Television and Sound Broadcast - for customer 11A_Cust8935    (# 02562-1)
---------------------------3/3/2020 3:05:31 PM---------------------------
New customer created with customer ID :02563-1
---------------------------3/3/2020 3:05:54 PM---------------------------
New Application creation started for customer :11A_Cust8936    (# 02563-1)
---------------------------3/3/2020 3:06:23 PM---------------------------
New Application selected sublicense - Television and Sound Broadcast - for customer 11A_Cust8936    (# 02563-1)
---------------------------3/3/2020 4:26:19 PM---------------------------
New Application creation started for customer :Addcustgvt1234    (# 02564-1)
---------------------------3/3/2020 4:26:48 PM---------------------------
New Application selected sublicense - Land / Mobile - for customer Addcustgvt1234    (# 02564-1)
---------------------------3/3/2020 9:20:03 PM---------------------------
New customer created with customer ID :02567-1
---------------------------3/3/2020 9:20:47 PM---------------------------
New Application creation started for customer :11A_Cust8937    (# 02567-1)
---------------------------3/3/2020 9:21:18 PM---------------------------
New Application selected sublicense - Television and Sound Broadcast - for customer 11A_Cust8937    (# 02567-1)
---------------------------3/4/2020 11:28:17 AM---------------------------
New Application creation started for customer :Addcustgvt1234    (# 02570-1)
---------------------------3/4/2020 11:28:47 AM---------------------------
New Application selected sublicense - Radio Transmitter, Security - for customer Addcustgvt1234    (# 02570-1)
---------------------------3/4/2020 4:58:21 PM---------------------------
New Application creation started for customer :Addcustgvt1234    (# 02575-1)
---------------------------3/4/2020 5:15:14 PM---------------------------
New Application creation started for customer :Addcustgvt1234    (# 02575-1)
---------------------------3/4/2020 5:25:24 PM---------------------------
New Application creation started for customer :Addcustgvt1234    (# 02576-1)
---------------------------3/4/2020 6:14:57 PM---------------------------
New customer created with customer ID :02579-1
---------------------------3/4/2020 6:15:27 PM---------------------------
New Application creation started for customer :11A_Cust8938    (# 02579-1)
---------------------------3/4/2020 9:18:00 PM---------------------------
New customer created with customer ID :02583-1
---------------------------3/4/2020 9:18:35 PM---------------------------
New Application creation started for customer :11A_Cust8939    (# 02583-1)
---------------------------3/4/2020 9:19:05 PM---------------------------
New Application selected sublicense - Television and Sound Broadcast - for customer 11A_Cust8939    (# 02583-1)
---------------------------3/4/2020 9:20:52 PM---------------------------
New Application creation started for customer :11A_Cust8939    (# 02583-1)
---------------------------3/4/2020 9:29:08 PM---------------------------
New customer created with customer ID :02584-1
---------------------------3/4/2020 9:29:42 PM---------------------------
New Application creation started for customer :11A_Cust8940    (# 02584-1)
---------------------------3/4/2020 9:30:13 PM---------------------------
New Application selected sublicense - Television and Sound Broadcast - for customer 11A_Cust8940    (# 02584-1)
---------------------------3/4/2020 9:31:48 PM---------------------------
New Application creation started for customer :11A_Cust8940    (# 02584-1)
---------------------------3/4/2020 9:41:45 PM---------------------------
New customer created with customer ID :02585-1
---------------------------3/4/2020 9:42:19 PM---------------------------
New Application creation started for customer :11A_Cust8941    (# 02585-1)
---------------------------3/4/2020 9:42:49 PM---------------------------
New Application selected sublicense - Television and Sound Broadcast - for customer 11A_Cust8941    (# 02585-1)
---------------------------3/4/2020 10:19:34 PM---------------------------
New customer created with customer ID :02586-1
---------------------------3/4/2020 10:20:12 PM---------------------------
New Application creation started for customer :11A_Cust8943    (# 02586-1)
---------------------------3/4/2020 10:20:43 PM---------------------------
New Application selected sublicense - Television and Sound Broadcast - for customer 11A_Cust8943    (# 02586-1)
---------------------------3/5/2020 11:25:47 AM---------------------------
New customer created with customer ID :02587-1
---------------------------3/5/2020 11:26:26 AM---------------------------
New Application creation started for customer :111A_Cust111    (# 02587-1)
---------------------------3/5/2020 12:30:58 PM---------------------------
New customer created with customer ID :02588-1
---------------------------3/5/2020 12:31:30 PM---------------------------
New Application creation started for customer :111_ATC    (# 02588-1)
---------------------------3/5/2020 12:32:00 PM---------------------------
New Application selected sublicense - Television and Sound Broadcast - for customer 111_ATC    (# 02588-1)
---------------------------3/5/2020 12:55:50 PM---------------------------
New customer created with customer ID :02589-1
---------------------------3/5/2020 12:56:23 PM---------------------------
New Application creation started for customer :111_ATC    (# 02589-1)
---------------------------3/5/2020 12:56:53 PM---------------------------
New Application selected sublicense - Television and Sound Broadcast - for customer 111_ATC    (# 02589-1)
---------------------------3/5/2020 1:12:16 PM---------------------------
New customer created with customer ID :02590-1
---------------------------3/5/2020 1:12:48 PM---------------------------
New Application creation started for customer :111_ATC    (# 02590-1)
---------------------------3/5/2020 1:13:18 PM---------------------------
New Application selected sublicense - Television and Sound Broadcast - for customer 111_ATC    (# 02590-1)
---------------------------3/5/2020 1:25:44 PM---------------------------
New customer created with customer ID :02591-1
---------------------------3/5/2020 1:26:13 PM---------------------------
New Application creation started for customer :111_ATC    (# 02591-1)
---------------------------3/5/2020 1:26:43 PM---------------------------
New Application selected sublicense - Television and Sound Broadcast - for customer 111_ATC    (# 02591-1)
---------------------------3/5/2020 2:44:30 PM---------------------------
New customer created with customer ID :02592-1
---------------------------3/5/2020 2:45:01 PM---------------------------
New Application creation started for customer :111_ATC    (# 02592-1)
---------------------------3/5/2020 2:45:31 PM---------------------------
New Application selected sublicense - Television and Sound Broadcast - for customer 111_ATC    (# 02592-1)
---------------------------3/5/2020 3:53:48 PM---------------------------
New customer created with customer ID :02594-1
---------------------------3/5/2020 3:54:19 PM---------------------------
New Application creation started for customer :111_ATC    (# 02594-1)
---------------------------3/5/2020 3:54:49 PM---------------------------
New Application selected sublicense - Television and Sound Broadcast - for customer 111_ATC    (# 02594-1)
---------------------------3/5/2020 4:05:28 PM---------------------------
New customer created with customer ID :02595-1
---------------------------3/5/2020 4:05:58 PM---------------------------
New Application creation started for customer :111_ATC    (# 02595-1)
---------------------------3/5/2020 4:06:29 PM---------------------------
New Application selected sublicense - Television and Sound Broadcast - for customer 111_ATC    (# 02595-1)
---------------------------3/5/2020 4:17:34 PM---------------------------
New customer created with customer ID :02596-1
---------------------------3/5/2020 4:18:03 PM---------------------------
New Application creation started for customer :111_ATC    (# 02596-1)
---------------------------3/5/2020 4:18:33 PM---------------------------
New Application selected sublicense - Television and Sound Broadcast - for customer 111_ATC    (# 02596-1)
---------------------------3/5/2020 4:29:50 PM---------------------------
New customer created with customer ID :02598-1
---------------------------3/5/2020 4:30:22 PM---------------------------
New Application creation started for customer :111_ATC    (# 02598-1)
---------------------------3/5/2020 4:30:52 PM---------------------------
New Application selected sublicense - Television and Sound Broadcast - for customer 111_ATC    (# 02598-1)
---------------------------3/5/2020 4:42:08 PM---------------------------
New customer created with customer ID :02599-1
---------------------------3/5/2020 4:42:38 PM---------------------------
New Application creation started for customer :111_ATC    (# 02599-1)
---------------------------3/5/2020 4:43:08 PM---------------------------
New Application selected sublicense - Television and Sound Broadcast - for customer 111_ATC    (# 02599-1)
---------------------------3/5/2020 7:55:25 PM---------------------------
New customer created with customer ID :02600-1
---------------------------3/5/2020 7:55:52 PM---------------------------
New Application creation started for customer :111_ATC    (# 02600-1)
---------------------------3/5/2020 7:56:22 PM---------------------------
New Application selected sublicense - Television and Sound Broadcast - for customer 111_ATC    (# 02600-1)
---------------------------3/5/2020 8:47:23 PM---------------------------
New customer created with customer ID :02601-1
---------------------------3/5/2020 8:47:52 PM---------------------------
New Application creation started for customer :1111_ATC    (# 02601-1)
---------------------------3/5/2020 8:48:22 PM---------------------------
New Application selected sublicense - Television and Sound Broadcast - for customer 1111_ATC    (# 02601-1)
---------------------------3/5/2020 9:23:53 PM---------------------------
New customer created with customer ID :02603-1
---------------------------3/5/2020 9:24:22 PM---------------------------
New Application creation started for customer :01111_ATC    (# 02603-1)
---------------------------3/5/2020 9:24:52 PM---------------------------
New Application selected sublicense - Television and Sound Broadcast - for customer 01111_ATC    (# 02603-1)
---------------------------3/5/2020 9:40:52 PM---------------------------
New customer created with customer ID :02604-1
---------------------------3/5/2020 9:41:21 PM---------------------------
New Application creation started for customer :01112_ATC    (# 02604-1)
---------------------------3/5/2020 9:41:51 PM---------------------------
New Application selected sublicense - Television and Sound Broadcast - for customer 01112_ATC    (# 02604-1)
---------------------------3/5/2020 10:11:10 PM---------------------------
New customer created with customer ID :02605-1
---------------------------3/5/2020 10:11:49 PM---------------------------
New Application creation started for customer :01113_ATC    (# 02605-1)
---------------------------3/5/2020 10:12:20 PM---------------------------
New Application selected sublicense - Television and Sound Broadcast - for customer 01113_ATC    (# 02605-1)
---------------------------3/9/2020 5:45:22 PM---------------------------
New customer created with customer ID :02612-1
---------------------------3/9/2020 5:50:39 PM---------------------------
New customer created with customer ID :02613-1
---------------------------3/9/2020 5:51:16 PM---------------------------
New Application creation started for customer :01113_ATC    (# 02613-1)
---------------------------3/9/2020 5:51:48 PM---------------------------
New Application selected sublicense - Land / Mobile - for customer 01113_ATC    (# 02613-1)
---------------------------3/9/2020 6:17:36 PM---------------------------
New customer created with customer ID :02614-1
---------------------------3/9/2020 6:18:08 PM---------------------------
New Application creation started for customer :001113_ATC    (# 02614-1)
---------------------------3/9/2020 6:18:40 PM---------------------------
New Application selected sublicense - Land / Mobile - for customer 001113_ATC    (# 02614-1)
---------------------------3/9/2020 6:53:39 PM---------------------------
New customer created with customer ID :02617-1
---------------------------3/9/2020 6:54:17 PM---------------------------
New Application creation started for customer :001113_ATC    (# 02617-1)
---------------------------3/9/2020 7:21:22 PM---------------------------
New customer created with customer ID :02618-1
---------------------------3/9/2020 7:21:54 PM---------------------------
New Application creation started for customer :001113_ATC    (# 02618-1)
---------------------------3/9/2020 7:52:35 PM---------------------------
New customer created with customer ID :02619-1
---------------------------3/9/2020 7:53:14 PM---------------------------
New Application creation started for customer :001113_ATC    (# 02619-1)
---------------------------3/9/2020 8:09:54 PM---------------------------
New customer created with customer ID :02620-1
---------------------------3/9/2020 8:10:26 PM---------------------------
New Application creation started for customer :001113_ATC    (# 02620-1)
---------------------------3/9/2020 8:26:48 PM---------------------------
New customer created with customer ID :02621-1
---------------------------3/9/2020 8:27:20 PM---------------------------
New Application creation started for customer :001113_ATC    (# 02621-1)
---------------------------3/9/2020 9:10:55 PM---------------------------
New customer created with customer ID :02622-1
---------------------------3/9/2020 9:11:39 PM---------------------------
New Application creation started for customer :001113_ATC    (# 02622-1)
---------------------------3/11/2020 10:49:50 PM---------------------------
Creating new customer
---------------------------3/11/2020 10:50:28 PM---------------------------
New customer created with customer ID :02635-1
---------------------------3/11/2020 10:53:25 PM---------------------------
New customer created with customer ID :02636-1
---------------------------3/11/2020 11:37:25 PM---------------------------
New Application creation started for customer :AddcustrNgvtcmp354    (# 02638-1)
---------------------------3/11/2020 11:39:27 PM---------------------------
New Application creation started for customer :AddcustrNgvtcmp354    (# 02638-1)
---------------------------3/11/2020 11:40:43 PM---------------------------
New Application creation started for customer :AddcustrNgvtcmp354    (# 02638-1)
---------------------------3/11/2020 11:41:44 PM---------------------------
New Application creation started for customer :AddcustrNgvtcmp354    (# 02638-1)
---------------------------3/11/2020 11:43:06 PM---------------------------
New Application creation started for customer :AddcustrNgvtcmp354    (# 02638-1)
---------------------------3/11/2020 11:44:06 PM---------------------------
New Application creation started for customer :AddcustrNgvtcmp354    (# 02638-1)
---------------------------3/11/2020 11:45:54 PM---------------------------
New Application creation started for customer :AddcustrNgvtcmp354    (# 02638-1)
---------------------------3/11/2020 11:47:50 PM---------------------------
New Application creation started for customer :AddcustrNgvtcmp354    (# 02638-1)
---------------------------3/11/2020 11:48:50 PM---------------------------
New Application creation started for customer :AddcustrNgvtcmp354    (# 02638-1)
---------------------------3/11/2020 11:50:02 PM---------------------------
New Application creation started for customer :AddcustrNgvtcmp354    (# 02638-1)
---------------------------3/12/2020 12:03:57 AM---------------------------
Creating new customer
---------------------------3/12/2020 12:04:38 AM---------------------------
New customer created with customer ID :02639-1
---------------------------3/12/2020 12:22:18 AM---------------------------
New Application creation started for customer :Abc Reddy    (# 02639-1)
---------------------------3/12/2020 12:22:48 AM---------------------------
New Application selected sublicense - Television and Sound Broadcast - for customer Abc Reddy    (# 02639-1)
---------------------------3/12/2020 7:32:25 AM---------------------------
Creating new customer
---------------------------3/12/2020 7:33:16 AM---------------------------
New customer created with customer ID :02640-1
---------------------------3/12/2020 12:34:02 PM---------------------------
Creating new customer
---------------------------3/12/2020 12:34:34 PM---------------------------
New customer created with customer ID :02641-1
---------------------------3/12/2020 12:35:39 PM---------------------------
New Application creation started for customer :Abc Reddy    (# 02641-1)
---------------------------3/12/2020 12:36:08 PM---------------------------
New Application selected sublicense - Aircraft/Aeronautical - for customer Abc Reddy    (# 02641-1)
---------------------------3/12/2020 3:05:42 PM---------------------------
Creating new customer
---------------------------3/12/2020 3:42:57 PM---------------------------
Creating new customer
---------------------------3/12/2020 4:51:32 PM---------------------------
Creating new customer
---------------------------3/12/2020 4:52:37 PM---------------------------
New customer created with customer ID :02642-1
---------------------------3/12/2020 5:01:10 PM---------------------------
Creating new customer
---------------------------3/12/2020 5:02:05 PM---------------------------
New customer created with customer ID :02643-1
---------------------------3/12/2020 6:17:56 PM---------------------------
Creating new customer
---------------------------3/12/2020 6:18:51 PM---------------------------
New customer created with customer ID :02644-1
---------------------------3/12/2020 6:19:54 PM---------------------------
New Application creation started for customer :00Bruce Reddy    (# 02644-1)
---------------------------3/12/2020 6:20:23 PM---------------------------
New Application selected sublicense - Television and Sound Broadcast - for customer 00Bruce Reddy    (# 02644-1)
---------------------------3/12/2020 6:33:04 PM---------------------------
New customer created with customer ID :02645-1
---------------------------3/12/2020 6:33:29 PM---------------------------
New Application creation started for customer :001113_ATC    (# 02645-1)
---------------------------3/12/2020 6:33:59 PM---------------------------
New Application selected sublicense - Land / Mobile - for customer 001113_ATC    (# 02645-1)
---------------------------3/12/2020 6:44:03 PM---------------------------
Creating new customer
---------------------------3/12/2020 6:44:58 PM---------------------------
New customer created with customer ID :02646-1
---------------------------3/12/2020 6:45:57 PM---------------------------
New Application creation started for customer :00Bruce Reddy    (# 02646-1)
---------------------------3/12/2020 6:46:27 PM---------------------------
New Application selected sublicense - Land / Mobile - for customer 00Bruce Reddy    (# 02646-1)
---------------------------3/12/2020 6:52:58 PM---------------------------
New Application creation started for customer :111Addcustgvt1238    (# 02647-1)
---------------------------3/12/2020 6:53:27 PM---------------------------
New Application selected sublicense - Cellular Mobile / WLL - for customer 111Addcustgvt1238    (# 02647-1)
---------------------------3/12/2020 6:59:44 PM---------------------------
New Application creation started for customer :AddcustrNgvtcmp354    (# 02648-1)
---------------------------3/12/2020 7:00:14 PM---------------------------
New Application selected sublicense - Radio Transmitter, Security - for customer AddcustrNgvtcmp354    (# 02648-1)
---------------------------3/12/2020 7:04:11 PM---------------------------
New customer created with customer ID :02649-1
---------------------------3/12/2020 7:04:37 PM---------------------------
New Application creation started for customer :001113_ATC    (# 02649-1)
---------------------------3/12/2020 7:05:06 PM---------------------------
New Application selected sublicense - Television and Sound Broadcast - for customer 001113_ATC    (# 02649-1)
---------------------------3/12/2020 7:15:17 PM---------------------------
New customer created with customer ID :02650-1
---------------------------3/12/2020 7:15:44 PM---------------------------
New Application creation started for customer :001113_ATC    (# 02650-1)
---------------------------3/12/2020 7:16:14 PM---------------------------
New Application selected sublicense - Ship station - for customer 001113_ATC    (# 02650-1)
---------------------------3/12/2020 7:22:09 PM---------------------------
New customer created with customer ID :02651-1
---------------------------3/12/2020 7:22:35 PM---------------------------
New Application creation started for customer :001113_ATC    (# 02651-1)
---------------------------3/12/2020 7:23:05 PM---------------------------
New Application selected sublicense - Ship station - for customer 001113_ATC    (# 02651-1)
---------------------------3/12/2020 7:30:22 PM---------------------------
New Application creation started for customer :111Addcustgvt1238    (# 02652-1)
---------------------------3/12/2020 7:30:52 PM---------------------------
New Application selected sublicense - Aircraft/Aeronautical - for customer 111Addcustgvt1238    (# 02652-1)
---------------------------3/12/2020 7:35:56 PM---------------------------
New Application creation started for customer :111Addcustgvt1238    (# 02653-1)
---------------------------3/12/2020 7:48:59 PM---------------------------
New Application creation started for customer :111Addcustgvt1238    (# 02654-1)
---------------------------3/12/2020 7:49:29 PM---------------------------
New Application selected sublicense - Ship station - for customer 111Addcustgvt1238    (# 02654-1)
---------------------------3/12/2020 7:57:56 PM---------------------------
New customer created with customer ID :02655-1
---------------------------3/12/2020 7:58:20 PM---------------------------
New Application creation started for customer :001113_ATC    (# 02655-1)
---------------------------3/12/2020 7:58:50 PM---------------------------
New Application selected sublicense - Ship station - for customer 001113_ATC    (# 02655-1)
---------------------------3/12/2020 8:32:17 PM---------------------------
New Application creation started for customer :000111Wayne    (# 02656-1)
---------------------------3/12/2020 8:32:46 PM---------------------------
New Application selected sublicense - Cellular Mobile / WLL - for customer 000111Wayne    (# 02656-1)
---------------------------3/12/2020 11:21:07 PM---------------------------
Creating new customer
---------------------------3/12/2020 11:22:22 PM---------------------------
New customer created with customer ID :02657-1
---------------------------3/12/2020 11:23:32 PM---------------------------
New Application creation started for customer :00001Bruce Reddy    (# 02657-1)
---------------------------3/12/2020 11:24:03 PM---------------------------
New Application selected sublicense - Television and Sound Broadcast - for customer 00001Bruce Reddy    (# 02657-1)
---------------------------3/16/2020 7:07:15 PM---------------------------
Creating new customer
---------------------------3/16/2020 7:08:09 PM---------------------------
New customer created with customer ID :02661-1
---------------------------3/16/2020 7:09:09 PM---------------------------
New Application creation started for customer :00002Bruce Reddy    (# 02661-1)
---------------------------3/16/2020 7:09:43 PM---------------------------
New Application selected sublicense - Aircraft/Aeronautical - for customer 
---------------------------3/16/2020 8:04:57 PM---------------------------
Creating new customer
---------------------------3/16/2020 8:05:53 PM---------------------------
New customer created with customer ID :02662-1
---------------------------3/16/2020 8:08:50 PM---------------------------
New Application creation started for customer :00003Bruce Wayne    (# 02662-1)
---------------------------3/16/2020 8:10:16 PM---------------------------
New Application selected sublicense - Aircraft/Aeronautical - for customer 
---------------------------3/16/2020 8:21:29 PM---------------------------
Creating new customer
---------------------------3/16/2020 8:22:28 PM---------------------------
New customer created with customer ID :02663-1
---------------------------3/16/2020 8:26:41 PM---------------------------
Creating new customer
---------------------------3/16/2020 8:27:39 PM---------------------------
New customer created with customer ID :02664-1
---------------------------3/16/2020 8:28:41 PM---------------------------
New Application creation started for customer :00004Bruce Wayne    (# 02664-1)
---------------------------3/16/2020 8:29:18 PM---------------------------
New Application selected sublicense - Aircraft/Aeronautical - for customer 
---------------------------3/16/2020 8:47:10 PM---------------------------
Creating new customer
---------------------------3/16/2020 8:48:16 PM---------------------------
New customer created with customer ID :02665-1
---------------------------3/16/2020 8:49:31 PM---------------------------
New Application creation started for customer :00005Bruce Wayne    (# 02665-1)
---------------------------3/16/2020 8:50:19 PM---------------------------
New Application selected sublicense - Aircraft/Aeronautical - for customer 
---------------------------3/17/2020 11:21:49 PM---------------------------
Creating new customer
---------------------------3/17/2020 11:22:53 PM---------------------------
New customer created with customer ID :02666-1
---------------------------3/17/2020 11:24:03 PM---------------------------
New Application creation started for customer :00006Bruce Wayne    (# 02666-1)
---------------------------3/18/2020 7:25:22 AM---------------------------
Creating new customer
---------------------------3/18/2020 7:26:11 AM---------------------------
New customer created with customer ID :02667-1
---------------------------3/18/2020 7:27:14 AM---------------------------
New Application creation started for customer :00006Bruce Wayne    (# 02667-1)
---------------------------3/18/2020 11:28:47 AM---------------------------
Creating new customer
---------------------------3/18/2020 11:29:51 AM---------------------------
New customer created with customer ID :02668-1
---------------------------3/18/2020 11:30:57 AM---------------------------
New Application creation started for customer :00006Bruce Wayne    (# 02668-1)
---------------------------3/18/2020 12:50:55 PM---------------------------
Creating new customer
---------------------------3/18/2020 12:51:52 PM---------------------------
New customer created with customer ID :02669-1
---------------------------3/18/2020 12:52:54 PM---------------------------
New Application creation started for customer :00006Bruce Wayne    (# 02669-1)
---------------------------3/18/2020 5:08:44 PM---------------------------
Creating new customer
---------------------------3/18/2020 5:09:40 PM---------------------------
New customer created with customer ID :02670-1
---------------------------3/18/2020 5:10:46 PM---------------------------
New Application creation started for customer :00006Bruce Wayne    (# 02670-1)
---------------------------3/18/2020 5:34:02 PM---------------------------
Creating new customer
---------------------------3/18/2020 5:34:55 PM---------------------------
New customer created with customer ID :02671-1
---------------------------3/18/2020 5:35:40 PM---------------------------
New Application creation started for customer :00006Bruce Wayne    (# 02671-1)
---------------------------3/18/2020 6:01:41 PM---------------------------
Creating new customer
---------------------------3/18/2020 6:02:50 PM---------------------------
New customer created with customer ID :02672-1
---------------------------3/18/2020 6:03:53 PM---------------------------
New Application creation started for customer :000001Bruce Wayne    (# 02672-1)
---------------------------3/18/2020 6:28:44 PM---------------------------
Creating new customer
---------------------------3/18/2020 6:29:31 PM---------------------------
New customer created with customer ID :02673-1
---------------------------3/18/2020 6:30:12 PM---------------------------
New Application creation started for customer :000002Bruce Wayne    (# 02673-1)
---------------------------3/18/2020 9:37:25 PM---------------------------
Creating new customer
---------------------------3/18/2020 9:38:04 PM---------------------------
New customer created with customer ID :02676-1
---------------------------3/18/2020 9:38:46 PM---------------------------
New Application creation started for customer :000003Bruce Wayne    (# 02676-1)
---------------------------3/18/2020 10:16:32 PM---------------------------
Creating new customer
---------------------------3/18/2020 10:17:17 PM---------------------------
New customer created with customer ID :02677-1
---------------------------3/18/2020 10:17:57 PM---------------------------
New Application creation started for customer :000004Bruce Wayne    (# 02677-1)
---------------------------3/18/2020 10:36:10 PM---------------------------
Creating new customer
---------------------------3/18/2020 10:36:56 PM---------------------------
New customer created with customer ID :02678-1
---------------------------3/18/2020 10:37:36 PM---------------------------
New Application creation started for customer :000004Bruce Wayne    (# 02678-1)
---------------------------3/18/2020 11:17:32 PM---------------------------
Creating new customer
---------------------------3/18/2020 11:18:18 PM---------------------------
New customer created with customer ID :02679-1
---------------------------3/18/2020 11:18:58 PM---------------------------
New Application creation started for customer :000005Bruce Wayne    (# 02679-1)
---------------------------3/19/2020 6:29:48 AM---------------------------
Creating new customer
---------------------------3/19/2020 6:30:37 AM---------------------------
New customer created with customer ID :02680-1
---------------------------3/19/2020 6:31:23 AM---------------------------
New Application creation started for customer :0000056ruce Wayne    (# 02680-1)
---------------------------3/19/2020 7:08:32 AM---------------------------
Creating new customer
---------------------------3/19/2020 7:09:20 AM---------------------------
New customer created with customer ID :02681-1
---------------------------3/19/2020 7:10:04 AM---------------------------
New Application creation started for customer :000006Bruce Wayne    (# 02681-1)
---------------------------3/19/2020 7:50:55 AM---------------------------
Creating new customer
---------------------------3/19/2020 7:51:43 AM---------------------------
New customer created with customer ID :02682-1
---------------------------3/19/2020 7:52:27 AM---------------------------
New Application creation started for customer :000007Bruce Wayne    (# 02682-1)
---------------------------3/19/2020 9:10:05 AM---------------------------
Creating new customer
---------------------------3/19/2020 9:10:55 AM---------------------------
New customer created with customer ID :02683-1
---------------------------3/19/2020 9:11:40 AM---------------------------
New Application creation started for customer :00000Bruce Wayne    (# 02683-1)
---------------------------3/19/2020 9:44:47 AM---------------------------
Creating new customer
---------------------------3/19/2020 9:45:33 AM---------------------------
New customer created with customer ID :02684-1
---------------------------3/19/2020 9:46:16 AM---------------------------
New Application creation started for customer :000008Bruce Wayne    (# 02684-1)
---------------------------3/19/2020 10:07:13 AM---------------------------
New customer created with customer ID :02685-1
---------------------------3/19/2020 10:07:48 AM---------------------------
New Application creation started for customer :0000111Eric    (# 02685-1)
---------------------------23-03-2020 09:23:28---------------------------
Creating new customer
---------------------------23-03-2020 09:24:48---------------------------
New customer created with customer ID :02688-1
---------------------------23-03-2020 09:26:00---------------------------
New Application creation started for customer :'Bruce Wayne    (# 02688-1)
---------------------------23-03-2020 09:41:56---------------------------
Creating new customer
---------------------------23-03-2020 09:42:42---------------------------
New customer created with customer ID :02689-1
---------------------------23-03-2020 09:43:23---------------------------
New Application creation started for customer :'Bruce Wayne    (# 02689-1)
---------------------------23-03-2020 10:14:35---------------------------
Creating new customer
---------------------------23-03-2020 10:15:26---------------------------
New customer created with customer ID :02690-1
---------------------------23-03-2020 11:18:19---------------------------
Creating new customer
---------------------------23-03-2020 11:19:02---------------------------
New customer created with customer ID :02691-1
---------------------------23-03-2020 14:17:05---------------------------
Creating new customer
---------------------------23-03-2020 14:17:48---------------------------
New customer created with customer ID :02692-1
---------------------------23-03-2020 14:18:29---------------------------
New Application creation started for customer :'Bruce Wayne    (# 02692-1)
---------------------------23-03-2020 14:26:32---------------------------
Creating new customer
---------------------------23-03-2020 14:27:16---------------------------
New customer created with customer ID :02693-1
---------------------------23-03-2020 14:27:58---------------------------
New Application creation started for customer :'Bruce Wayne    (# 02693-1)
---------------------------23-03-2020 14:36:59---------------------------
Creating new customer
---------------------------23-03-2020 14:37:46---------------------------
New customer created with customer ID :02694-1
---------------------------23-03-2020 14:45:02---------------------------
Creating new customer
---------------------------23-03-2020 14:49:33---------------------------
Creating new customer
---------------------------23-03-2020 14:52:47---------------------------
New customer created with customer ID :
---------------------------23-03-2020 16:06:12---------------------------
Creating new customer
---------------------------23-03-2020 16:07:00---------------------------
New customer created with customer ID :02695-1
---------------------------23-03-2020 16:24:09---------------------------
Creating new customer
---------------------------23-03-2020 17:12:48---------------------------
Creating new customer
---------------------------23-03-2020 17:13:34---------------------------
New customer created with customer ID :02696-1
---------------------------23-03-2020 17:14:06---------------------------
New Application creation started for customer :'Bruce Wayne    (# 02696-1)
---------------------------23-03-2020 17:22:26---------------------------
Creating new customer
---------------------------23-03-2020 17:23:19---------------------------
New customer created with customer ID :02697-1
---------------------------23-03-2020 17:24:01---------------------------
New Application creation started for customer :'Bruce Wayne    (# 02697-1)
---------------------------23-03-2020 17:28:08---------------------------
Creating new customer
---------------------------23-03-2020 17:28:54---------------------------
New customer created with customer ID :02698-1
---------------------------23-03-2020 17:29:36---------------------------
New Application creation started for customer :'Bruce Wayne    (# 02698-1)
---------------------------23-03-2020 18:01:31---------------------------
Creating new customer
---------------------------23-03-2020 18:02:39---------------------------
New customer created with customer ID :02699-1
---------------------------23-03-2020 18:03:19---------------------------
New Application creation started for customer :'Bruce Wayne    (# 02699-1)
---------------------------23-03-2020 18:16:53---------------------------
Creating new customer
---------------------------23-03-2020 18:17:38---------------------------
New customer created with customer ID :02700-1
---------------------------23-03-2020 18:28:30---------------------------
New Application creation started for customer :'Bruce Wayne    (# 02700-1)
---------------------------23-03-2020 18:33:27---------------------------
New Application creation started for customer :'Bruce Wayne    (# 02700-1)
---------------------------23-03-2020 19:48:38---------------------------
Creating new customer
---------------------------23-03-2020 19:49:22---------------------------
New customer created with customer ID :02701-1
---------------------------23-03-2020 19:50:01---------------------------
New Application creation started for customer :'Bruce Wayne    (# 02701-1)
---------------------------23-03-2020 20:28:14---------------------------
Creating new customer
---------------------------23-03-2020 20:28:59---------------------------
New customer created with customer ID :02702-1
---------------------------23-03-2020 21:41:26---------------------------
Creating new customer
---------------------------23-03-2020 21:42:14---------------------------
New customer created with customer ID :02703-1
---------------------------23-03-2020 21:47:04---------------------------
Creating new customer
---------------------------23-03-2020 21:47:51---------------------------
New customer created with customer ID :02704-1
---------------------------23-03-2020 21:48:33---------------------------
New Application creation started for customer :'Bruce Wayne    (# 02704-1)
---------------------------23-03-2020 22:15:39---------------------------
Creating new customer
---------------------------23-03-2020 22:16:22---------------------------
New customer created with customer ID :02705-1
---------------------------23-03-2020 22:17:01---------------------------
New Application creation started for customer :'Bruce Wayne    (# 02705-1)
---------------------------23-03-2020 23:17:25---------------------------
Creating new customer
---------------------------23-03-2020 23:18:09---------------------------
New customer created with customer ID :02706-1
---------------------------23-03-2020 23:18:49---------------------------
New Application creation started for customer :'Bruce Wayne    (# 02706-1)
---------------------------3/25/2020 2:48:33 PM---------------------------
Creating new customer
---------------------------3/25/2020 2:49:17 PM---------------------------
New customer created with customer ID :02711-1
---------------------------3/25/2020 2:49:58 PM---------------------------
New Application creation started for customer :'Eric744 Ray    (# 02711-1)
---------------------------3/25/2020 3:00:27 PM---------------------------
Creating new customer
---------------------------3/25/2020 3:01:08 PM---------------------------
New customer created with customer ID :02712-1
---------------------------3/25/2020 3:01:50 PM---------------------------
New Application creation started for customer :'Eric717 Ray    (# 02712-1)
---------------------------3/25/2020 5:21:42 PM---------------------------
Creating new customer
---------------------------3/25/2020 5:22:53 PM---------------------------
New Application creation started for customer :'Eric717 Ray    (# 02712-1)
---------------------------3/25/2020 5:24:55 PM---------------------------
Creating new customer
---------------------------3/25/2020 5:25:37 PM---------------------------
New customer created with customer ID :02713-1
---------------------------3/25/2020 5:26:16 PM---------------------------
New Application creation started for customer :'AEric460 Ray    (# 02713-1)
---------------------------3/25/2020 5:39:02 PM---------------------------
New customer created with customer ID :02714-1
---------------------------3/25/2020 5:39:26 PM---------------------------
New Application creation started for customer :'AEric289    (# 02714-1)
---------------------------3/25/2020 6:33:31 PM---------------------------
New Application creation started for customer :'AEric127    (# 02715-1)
---------------------------3/25/2020 6:53:38 PM---------------------------
New Application creation started for customer :'AEric469    (# 02716-1)
---------------------------3/25/2020 9:32:04 PM---------------------------
New Application creation started for customer :'AEric462    (# 02717-1)
---------------------------3/25/2020 9:49:20 PM---------------------------
Creating new customer
---------------------------3/25/2020 9:50:18 PM---------------------------
New customer created with customer ID :02718-1
---------------------------3/25/2020 9:51:09 PM---------------------------
New Application creation started for customer :'AEric850 Ray    (# 02718-1)
---------------------------3/25/2020 10:05:33 PM---------------------------
Creating new customer
---------------------------3/25/2020 10:06:36 PM---------------------------
New customer created with customer ID :02719-1
---------------------------3/25/2020 10:07:38 PM---------------------------
New Application creation started for customer :'AEric489 Ray    (# 02719-1)
---------------------------3/25/2020 10:29:34 PM---------------------------
New customer created with customer ID :02720-1
---------------------------3/25/2020 10:30:08 PM---------------------------
New Application creation started for customer :'AEric526    (# 02720-1)
---------------------------3/25/2020 10:50:55 PM---------------------------
New Application creation started for customer :'AEric887    (# 02721-1)
---------------------------3/25/2020 11:28:33 PM---------------------------
Creating new customer
---------------------------3/25/2020 11:29:29 PM---------------------------
New customer created with customer ID :02722-1
---------------------------3/25/2020 11:30:15 PM---------------------------
New Application creation started for customer :'AEric870 Ray    (# 02722-1)
---------------------------3/28/2020 8:56:20 PM---------------------------
Creating new customer
---------------------------3/28/2020 8:57:42 PM---------------------------
Creating new customer
---------------------------3/28/2020 9:00:10 PM---------------------------
Creating new customer
---------------------------3/28/2020 9:01:07 PM---------------------------
New customer created with customer ID :02729-1
---------------------------3/29/2020 8:49:22 PM---------------------------
Creating new customer
---------------------------3/29/2020 8:50:22 PM---------------------------
New customer created with customer ID :02730-1
---------------------------3/29/2020 8:51:16 PM---------------------------
New Application creation started for customer :'AbEric909 Ray    (# 02730-1)
---------------------------4/5/2020 10:22:12 PM---------------------------
Creating new customer
---------------------------4/5/2020 10:23:01 PM---------------------------
New customer created with customer ID :02731-1
---------------------------4/5/2020 10:23:43 PM---------------------------
New Application creation started for customer :'AbEric909 Ray    (# 02730-1)
---------------------------4/5/2020 10:26:44 PM---------------------------
New Application creation started for customer :'AbEric909 Ray    (# 02730-1)
---------------------------4/6/2020 7:45:05 AM---------------------------
New Application creation started for customer :
---------------------------4/6/2020 8:03:35 AM---------------------------
New Application creation started for customer :
---------------------------4/6/2020 8:09:10 AM---------------------------
New Application creation started for customer :'AbEric641 Ray    (# 02731-1)
---------------------------4/8/2020 9:29:20 AM---------------------------
New customer created with customer ID :02732-1
---------------------------4/8/2020 9:48:52 AM---------------------------
New Application creation started for customer :'AbEric751    (# 02732-1)
---------------------------4/14/2020 10:45:02 AM---------------------------
Creating new customer
---------------------------4/15/2020 9:16:52 AM---------------------------
Creating new customer
---------------------------06/06/2020 06:29:46 PM---------------------------
Creating new customer
---------------------------20/09/2020 19:48:17---------------------------
Creating new customer
---------------------------20/09/2020 20:01:41---------------------------
New customer created with customer ID :
---------------------------04/01/2021 11:30:08---------------------------
New customer created with customer ID :02466-1
---------------------------04/01/2021 11:35:14---------------------------
New customer created with customer ID :02467-1
---------------------------04/01/2021 11:38:09---------------------------
New customer created with customer ID :02468-1
---------------------------04/01/2021 12:09:31---------------------------
New Application creation started for customer :Test393 TestLast    (# 02463-1)
---------------------------04/01/2021 12:12:16---------------------------
New Application creation started for customer :Test393 TestLast    (# 02463-1)
---------------------------04/01/2021 12:16:22---------------------------
New Application creation started for customer :Test393 TestLast    (# 02463-1)
---------------------------04/01/2021 12:20:05---------------------------
New Application creation started for customer :Test393 TestLast    (# 02463-1)
---------------------------04/01/2021 12:22:31---------------------------
New Application creation started for customer :Test393 TestLast    (# 02463-1)
---------------------------04/01/2021 12:25:02---------------------------
New Application creation started for customer :Test393 TestLast    (# 02463-1)
---------------------------05/01/2021 00:00:33---------------------------
New Application creation started for customer :Test894 TestLast    (# 02476-1)
---------------------------05/01/2021 10:48:56---------------------------
New Application creation started for customer :Test621 TestLast    (# 02478-1)
---------------------------05/01/2021 12:44:49---------------------------
New Application creation started for customer :Test825 TestLast    (# 02481-1)
---------------------------05/01/2021 18:34:19---------------------------
New Application creation started for customer :Test801 TestLast    (# 02484-1)
---------------------------07/01/2021 12:25:04---------------------------
New Application creation started for customer :Test135 TestLast    (# 02494-1)
---------------------------19/01/2021 10:11:19---------------------------
New Application creation started for customer :test001 test001    (# 1100)
---------------------------13/02/2021 14:03:47---------------------------
New Application creation started for customer :
---------------------------13/02/2021 14:06:05---------------------------
New Application creation started for customer :Test290 TestLast    (# 02478-1)
---------------------------13/02/2021 14:58:54---------------------------
New customer created with customer ID :02479-1
---------------------------22/02/2021 09:08:47---------------------------
New Application creation started for customer :
---------------------------22/02/2021 13:30:22---------------------------
New Application creation started for customer :
---------------------------03/03/2021 07:54:11---------------------------
New Application creation started for customer :Test313 TestLast    (# 02486-1)
---------------------------03/03/2021 09:07:56---------------------------
New Application creation started for customer :Test487 TestLast    (# 02488-1)
---------------------------03/03/2021 10:08:52---------------------------
New Application creation started for customer :Test590 TestLast    (# 02489-1)
---------------------------03/03/2021 10:54:10---------------------------
New Application creation started for customer :Test530 TestLast    (# 02490-1)
---------------------------03/03/2021 13:37:21---------------------------
New Application creation started for customer :Test665 TestLast    (# 02491-1)
---------------------------03/03/2021 13:48:33---------------------------
New Application creation started for customer :Test466 TestLast    (# 02492-1)
---------------------------03/03/2021 13:56:36---------------------------
New Application creation started for customer :Test222 TestLast    (# 02493-1)
---------------------------03/03/2021 16:58:22---------------------------
New Application creation started for customer :Test240 TestLast    (# 02494-1)
---------------------------03/03/2021 18:08:58---------------------------
New Application creation started for customer :Test707 TestLast    (# 02495-1)
---------------------------03/03/2021 18:37:37---------------------------
New Application creation started for customer :Test890 TestLast    (# 02496-1)
---------------------------03/03/2021 20:13:52---------------------------
New Application creation started for customer :Test398 TestLast    (# 02497-1)
---------------------------03/03/2021 20:25:23---------------------------
New Application creation started for customer :Test773 TestLast    (# 02498-1)
---------------------------04/03/2021 08:59:34---------------------------
New Application creation started for customer :Test773 TestLast    (# 02498-1)
---------------------------04/03/2021 09:07:11---------------------------
New Application creation started for customer :Test81647890 TestLast5199047    (# 02499-1)
---------------------------04/03/2021 09:13:28---------------------------
New Application creation started for customer :Test63602847 TestLast4256054    (# 02500-1)
---------------------------04/03/2021 10:48:34---------------------------
New Application creation started for customer :Test69279116 TestLast4823681    (# 02501-1)
---------------------------04/03/2021 11:53:44---------------------------
New Application creation started for customer :Test75983828 TestLast7066723    (# 02502-1)
---------------------------04/03/2021 12:16:23---------------------------
New Application creation started for customer :Test64896792 TestLast2424084    (# 02503-1)
---------------------------04/03/2021 15:43:33---------------------------
New Application creation started for customer :Test24094790 TestLast9385143    (# 02504-1)
---------------------------04/03/2021 16:20:41---------------------------
New Application creation started for customer :Test60567874 TestLast9485851    (# 02505-1)
---------------------------04/03/2021 16:32:09---------------------------
New Application creation started for customer :Test55932254 TestLast6249310    (# 02506-1)
---------------------------04/03/2021 20:19:51---------------------------
New Application creation started for customer :Test92242068 TestLast7743145    (# 02507-1)
---------------------------05/03/2021 16:29:03---------------------------
New Application creation started for customer :Test85941714 TestLast2875490    (# 02508-1)
---------------------------05/03/2021 16:58:58---------------------------
New Application creation started for customer :Test23304385 TestLast4023815    (# 02509-1)
---------------------------05/03/2021 17:29:47---------------------------
New Application creation started for customer :Test73238772 TestLast7695740    (# 02510-1)
---------------------------05/03/2021 17:45:35---------------------------
New Application creation started for customer :Test40078372 TestLast6339700    (# 02511-1)
---------------------------05/03/2021 18:06:15---------------------------
New Application creation started for customer :Test63137240 TestLast4817425    (# 02512-1)
---------------------------05/03/2021 18:53:34---------------------------
New Application creation started for customer :Test47907656 TestLast9390941    (# 02513-1)
---------------------------05/03/2021 19:01:37---------------------------
New Application creation started for customer :Test14001102 TestLast1194684    (# 02514-1)
---------------------------05/03/2021 19:13:33---------------------------
New Application creation started for customer :Test37798709 TestLast1378705    (# 02515-1)
---------------------------05/03/2021 19:43:25---------------------------
New Application creation started for customer :Test61600894 TestLast1537290    (# 02517-1)
---------------------------05/03/2021 19:54:21---------------------------
New Application creation started for customer :Test27158755 TestLast9231487    (# 02518-1)
---------------------------05/03/2021 20:05:59---------------------------
New Application creation started for customer :Test63035220 TestLast7641369    (# 02519-1)
---------------------------05/03/2021 20:24:26---------------------------
New Application creation started for customer :Test10320682 TestLast9604610    (# 02520-1)
---------------------------05/03/2021 20:41:03---------------------------
New Application creation started for customer :Test36886233 TestLast4432598    (# 02521-1)
